{
	"additionalNodes": [],
	"additionalParameters": {
		"root": {
			"height": 148,
			"width": 216
		}
	},
	"inputs": [ {
		"command": "Variable",
		"name": "busyUnits"
	}, {
		"command": "Variable",
		"name": "lines"
	}, {
		"command": "Variable",
		"name": "line"
	} ],
	"outputs": [],
	"properties": {
		"BMybcGqF5pcvbYHVaQDhh6ZmmP6KbMKs": {
			"height": 112,
			"title": "nota_rinter_firstproject.GetUnit",
			"width": 276,
			"x": 1351,
			"y": -72
		},
		"FClrT7Ufn1Ood9XzCBD5Rmrwn1KbFmEE": {
			"height": 60,
			"title": "sequence",
			"width": 143,
			"x": 311,
			"y": 31
		},
		"G3jDnrxB0jCaZ3bTKB4os0dm1Qbyndxd": {
			"height": 94,
			"title": "store",
			"width": 303,
			"x": 506,
			"y": -138
		},
		"N3pWYjsDlEFTxlW2OyNmoH3sHySVcb08": {
			"height": 77,
			"title": "wait",
			"width": 217,
			"x": 1340,
			"y": 693
		},
		"VZC2b2BjW59haDqZ8GaIAh6SHX0Maaew": {
			"height": 60,
			"title": "sequence",
			"width": 143,
			"x": 1039,
			"y": 64
		},
		"Vx1hOpj61guN1ZuaSaOHV6TlIjldL8SH": {
			"height": 92,
			"title": "nota_rinter_firstproject.flyNunitsTo",
			"width": 377,
			"x": 1348,
			"y": 480
		},
		"ftJDUqwNcn08yxig1ZaukY7b43XNKuU7": {
			"height": 92,
			"title": "nota_rinter_firstproject.flyNunitsTo",
			"width": 366,
			"x": 1357,
			"y": 141
		},
		"hu1CJBWQGdLmd9aaTsisDpNiOHt9IWR0": {
			"height": 72,
			"title": "nota_rinter_firstproject.unloadAll",
			"width": 286,
			"x": 1353,
			"y": 231
		},
		"iaqjjT7WmQuBCsNj8ciV8fleaINlXMRa": {
			"height": 92,
			"title": "nota_rinter_firstproject.loadUnit",
			"width": 280,
			"x": 1359,
			"y": 44
		},
		"lLQYVb5MF1EYJVFLk9ny6I1ciUtCcl01": {
			"height": 94,
			"title": "store",
			"width": 296,
			"x": 510,
			"y": -41
		},
		"pntfVSOPh4DcPkbybUXNHV8aJFPa1vl5": {
			"height": 112,
			"title": "nota_rinter_firstproject.GetUnit",
			"width": 276,
			"x": 1374,
			"y": -202
		},
		"rehq0ksmFro5JNqbdQo7p0BMwswcETFw": {
			"height": 90,
			"title": "luaCondition",
			"width": 431,
			"x": 1322,
			"y": 293
		},
		"rlbOoV5dKQCZFiHpNEJZRhtxRBRdKNUx": {
			"height": 112,
			"title": "nota_rinter_firstproject.FreeUnit",
			"width": 283,
			"x": 1350,
			"y": 586
		},
		"tmuaZjsJ7H9gce2aNjJqbZ87oRR7Nor0": {
			"height": 54,
			"title": "success",
			"width": 132,
			"x": 1961,
			"y": 231
		},
		"twSUo1Li3hMpPWdYaXCAVnvmrM94ezJc": {
			"height": 60,
			"title": "repeat",
			"width": 131,
			"x": 625,
			"y": 63
		},
		"zOiN98F42rk69i2rmIuIGDdt2Uv5ux7n": {
			"height": 54,
			"title": "success",
			"width": 132,
			"x": 1935,
			"y": 340
		}
	},
	"roles": [ {
		"categories": [],
		"name": "Role 0"
	} ],
	"root": {
		"children": [ {
			"children": [],
			"id": "G3jDnrxB0jCaZ3bTKB4os0dm1Qbyndxd",
			"nodeType": "luaCommand",
			"parameters": [ {
				"name": "var",
				"value": "loader"
			}, {
				"name": "value",
				"value": "{id = - 1}"
			}, {
				"name": "scriptName",
				"value": "store"
			} ],
			"scriptName": "store"
		}, {
			"children": [],
			"id": "lLQYVb5MF1EYJVFLk9ny6I1ciUtCcl01",
			"nodeType": "luaCommand",
			"parameters": [ {
				"name": "var",
				"value": "box"
			}, {
				"name": "value",
				"value": "{id = -1}"
			}, {
				"name": "scriptName",
				"value": "store"
			} ],
			"scriptName": "store"
		}, {
			"children": [ {
				"children": [ {
					"children": [],
					"id": "pntfVSOPh4DcPkbybUXNHV8aJFPa1vl5",
					"nodeType": "luaCommand",
					"parameters": [ {
						"name": "unitName",
						"value": "'armbox'"
					}, {
						"name": "busyUnits",
						"value": "busyUnits"
					}, {
						"name": "outputID",
						"value": "box"
					}, {
						"name": "scriptName",
						"value": "nota_rinter_firstproject.GetUnit"
					} ],
					"scriptName": "nota_rinter_firstproject.GetUnit"
				}, {
					"children": [],
					"id": "BMybcGqF5pcvbYHVaQDhh6ZmmP6KbMKs",
					"nodeType": "luaCommand",
					"parameters": [ {
						"name": "unitName",
						"value": "'armatlas'"
					}, {
						"name": "busyUnits",
						"value": "busyUnits"
					}, {
						"name": "outputID",
						"value": "loader"
					}, {
						"name": "scriptName",
						"value": "nota_rinter_firstproject.GetUnit"
					} ],
					"scriptName": "nota_rinter_firstproject.GetUnit"
				}, {
					"children": [],
					"id": "iaqjjT7WmQuBCsNj8ciV8fleaINlXMRa",
					"nodeType": "luaCommand",
					"parameters": [ {
						"name": "unitID",
						"value": "box.id"
					}, {
						"name": "loaderID",
						"value": "loader.id"
					}, {
						"name": "scriptName",
						"value": "nota_rinter_firstproject.loadUnit"
					} ],
					"scriptName": "nota_rinter_firstproject.loadUnit"
				}, {
					"children": [],
					"id": "ftJDUqwNcn08yxig1ZaukY7b43XNKuU7",
					"nodeType": "luaCommand",
					"parameters": [ {
						"name": "positions",
						"value": "{lines[line].pos - lines[line].saveDir * 200}"
					}, {
						"name": "units",
						"value": "{loader.id}"
					}, {
						"name": "scriptName",
						"value": "nota_rinter_firstproject.flyNunitsTo"
					} ],
					"scriptName": "nota_rinter_firstproject.flyNunitsTo"
				}, {
					"children": [],
					"id": "hu1CJBWQGdLmd9aaTsisDpNiOHt9IWR0",
					"nodeType": "luaCommand",
					"parameters": [ {
						"name": "loaderID",
						"value": "loader.id"
					}, {
						"name": "scriptName",
						"value": "nota_rinter_firstproject.unloadAll"
					} ],
					"scriptName": "nota_rinter_firstproject.unloadAll"
				}, {
					"children": [ {
						"children": [],
						"id": "tmuaZjsJ7H9gce2aNjJqbZ87oRR7Nor0",
						"nodeType": "success",
						"parameters": []
					}, {
						"children": [],
						"id": "zOiN98F42rk69i2rmIuIGDdt2Uv5ux7n",
						"nodeType": "success",
						"parameters": []
					} ],
					"id": "rehq0ksmFro5JNqbdQo7p0BMwswcETFw",
					"nodeType": "luaCondition",
					"parameters": [ {
						"name": "expression",
						"value": "Spring.GiveOrderToUnit(box.id, CMD.MOVE, {100,10,20}, {})"
					}, {
						"name": "repeat",
						"value": "false"
					} ]
				}, {
					"children": [],
					"id": "Vx1hOpj61guN1ZuaSaOHV6TlIjldL8SH",
					"nodeType": "luaCommand",
					"parameters": [ {
						"name": "positions",
						"value": "{lines[line].pos + lines[line].saveDir * 1500}"
					}, {
						"name": "units",
						"value": "{loader.id}"
					}, {
						"name": "scriptName",
						"value": "nota_rinter_firstproject.flyNunitsTo"
					} ],
					"scriptName": "nota_rinter_firstproject.flyNunitsTo"
				}, {
					"children": [],
					"id": "rlbOoV5dKQCZFiHpNEJZRhtxRBRdKNUx",
					"nodeType": "luaCommand",
					"parameters": [ {
						"name": "id",
						"value": "loader.id"
					}, {
						"name": "busyUnits",
						"value": "busyUnits"
					}, {
						"name": "multipleUnits",
						"value": "false"
					}, {
						"name": "scriptName",
						"value": "nota_rinter_firstproject.FreeUnit"
					} ],
					"scriptName": "nota_rinter_firstproject.FreeUnit"
				}, {
					"children": [],
					"id": "N3pWYjsDlEFTxlW2OyNmoH3sHySVcb08",
					"nodeType": "wait",
					"parameters": [ {
						"name": "time",
						"value": 25
					} ]
				} ],
				"id": "VZC2b2BjW59haDqZ8GaIAh6SHX0Maaew",
				"nodeType": "sequence",
				"parameters": []
			} ],
			"id": "twSUo1Li3hMpPWdYaXCAVnvmrM94ezJc",
			"nodeType": "repeat",
			"parameters": []
		} ],
		"id": "FClrT7Ufn1Ood9XzCBD5Rmrwn1KbFmEE",
		"nodeType": "sequence",
		"parameters": []
	}
}