{
	"additionalNodes": [],
	"additionalParameters": {
		"root": {
			"height": 88,
			"width": 180
		}
	},
	"inputs": [],
	"outputs": [],
	"properties": {
		"Eg8Wa3PwYIvFGphzsUFW6mJvi3xLEV8m": {
			"height": 72,
			"title": "nota_rinter_firstproject.unloadAll",
			"width": 286,
			"x": 255,
			"y": 57
		}
	},
	"roles": [ {
		"categories": [],
		"name": "Role 0"
	} ],
	"root": {
		"children": [],
		"id": "Eg8Wa3PwYIvFGphzsUFW6mJvi3xLEV8m",
		"nodeType": "luaCommand",
		"parameters": [ {
			"name": "loaderID",
			"value": "units[1]"
		}, {
			"name": "scriptName",
			"value": "nota_rinter_firstproject.unloadAll"
		} ],
		"scriptName": "nota_rinter_firstproject.unloadAll"
	}
}